ISO-10303-21;
HEADER;
FILE_DESCRIPTION (( 'STEP AP203' ),
    '1' );
FILE_NAME ('1257K113.step',
    '2012-08-15T13:10:57',
    ( 'Admin' ),
    ( 'Microsoft' ),
    'SwSTEP 2.0',
    'SolidWorks 2012',
    '' );
FILE_SCHEMA (( 'CONFIG_CONTROL_DESIGN' ));
ENDSEC;

DATA;
#1 = ORIENTED_EDGE ( 'NONE', *, *, #213, .F. ) ;
#2 = ORIENTED_EDGE ( 'NONE', *, *, #216, .F. ) ;
#3 = ORIENTED_EDGE ( 'NONE', *, *, #219, .T. ) ;
#4 = ORIENTED_EDGE ( 'NONE', *, *, #212, .F. ) ;
#5 = ORIENTED_EDGE ( 'NONE', *, *, #211, .F. ) ;
#6 = EDGE_LOOP ( 'NONE', ( #2, #9, #4, #5 ) ) ;
#7 = EDGE_LOOP ( 'NONE', ( #123, #125 ) ) ;
#8 = EDGE_LOOP ( 'NONE', ( #46, #51, #47, #127 ) ) ;
#9 = ORIENTED_EDGE ( 'NONE', *, *, #217, .T. ) ;
#10 = CIRCLE ( 'NONE', #35, 0.1250000000000000000 ) ;
#11 = DIRECTION ( 'NONE',  ( -0.0000000000000000000, -0.0000000000000000000, -1.000000000000000000 ) ) ;
#12 = CARTESIAN_POINT ( 'NONE',  ( 0.0000000000000000000, 0.0000000000000000000, 1.500000000000000200 ) ) ;
#13 = DIRECTION ( 'NONE',  ( -1.000000000000000000, 0.0000000000000000000, 0.0000000000000000000 ) ) ;
#14 = PLANE ( 'NONE',  #24 ) ;
#15 = PLANE ( 'NONE',  #22 ) ;
#16 = CARTESIAN_POINT ( 'NONE',  ( -0.1250000000000000000, 0.0000000000000000000, 1.500000000000000200 ) ) ;
#17 = DIRECTION ( 'NONE',  ( 0.0000000000000000000, 0.0000000000000000000, 1.000000000000000000 ) ) ;
#18 = DIRECTION ( 'NONE',  ( 1.000000000000000000, 0.0000000000000000000, -0.0000000000000000000 ) ) ;
#19 = CARTESIAN_POINT ( 'NONE',  ( 0.09999999999999754900, 0.0000000000000000000, -1.500000000000000200 ) ) ;
#20 = AXIS2_PLACEMENT_3D ( 'NONE', #177, #171, #238 ) ;
#21 = PRODUCT_DEFINITION ( 'UNKNOWN', '', #42, #142 ) ;
#22 = AXIS2_PLACEMENT_3D ( 'NONE', #170, #172, #173 ) ;
#23 = AXIS2_PLACEMENT_3D ( 'NONE', #175, #174, #176 ) ;
#24 = AXIS2_PLACEMENT_3D ( 'NONE', #12, #17, #18 ) ;
#25 = AXIS2_PLACEMENT_3D ( 'NONE', #246, #11, #13 ) ;
#26 = AXIS2_PLACEMENT_3D ( 'NONE', #84, #83, #81 ) ;
#27 = AXIS2_PLACEMENT_3D ( 'NONE', #249, #248, #119 ) ;
#28 = AXIS2_PLACEMENT_3D ( 'NONE', #276, #277, #278 ) ;
#29 = AXIS2_PLACEMENT_3D ( 'NONE', #101, #100, #54 ) ;
#30 = EDGE_CURVE ( 'NONE', #129, #128, #253, .T. ) ;
#31 = AXIS2_PLACEMENT_3D ( 'NONE', #273, #274, #275 ) ;
#32 = AXIS2_PLACEMENT_3D ( 'NONE', #225, #226, #227 ) ;
#33 = AXIS2_PLACEMENT_3D ( 'NONE', #229, #230, #231 ) ;
#34 = AXIS2_PLACEMENT_3D ( 'NONE', #235, #236, #237 ) ;
#35 = AXIS2_PLACEMENT_3D ( 'NONE', #92, #93, #94 ) ;
#36 = AXIS2_PLACEMENT_3D ( 'NONE', #95, #109, #110 ) ;
#37 = CC_DESIGN_APPROVAL ( #39, ( #21 ) ) ;
#38 = AXIS2_PLACEMENT_3D ( 'NONE', #86, #87, #88 ) ;
#39 = APPROVAL ( #115, 'UNSPECIFIED' ) ;
#40 = CC_DESIGN_PERSON_AND_ORGANIZATION_ASSIGNMENT ( #60, #112, ( #80 ) ) ;
#41 = CC_DESIGN_PERSON_AND_ORGANIZATION_ASSIGNMENT ( #68, #117, ( #21 ) ) ;
#42 = PRODUCT_DEFINITION_FORMATION_WITH_SPECIFIED_SOURCE ( 'ANY', '', #80, .NOT_KNOWN. ) ;
#43 = CC_DESIGN_DATE_AND_TIME_ASSIGNMENT ( #72, #118, ( #21 ) ) ;
#44 =( GEOMETRIC_REPRESENTATION_CONTEXT ( 3 ) GLOBAL_UNCERTAINTY_ASSIGNED_CONTEXT ( ( #244 ) ) GLOBAL_UNIT_ASSIGNED_CONTEXT ( ( #104, #105, #106 ) ) REPRESENTATION_CONTEXT ( 'NONE', 'WORKASPACE' ) );
#45 = AXIS2_PLACEMENT_3D ( 'NONE', #96, #97, #233 ) ;
#46 = ORIENTED_EDGE ( 'NONE', *, *, #214, .F. ) ;
#47 = ORIENTED_EDGE ( 'NONE', *, *, #221, .T. ) ;
#48 = ORIENTED_EDGE ( 'NONE', *, *, #214, .T. ) ;
#49 = ORIENTED_EDGE ( 'NONE', *, *, #30, .F. ) ;
#50 = ORIENTED_EDGE ( 'NONE', *, *, #221, .F. ) ;
#51 = ORIENTED_EDGE ( 'NONE', *, *, #218, .T. ) ;
#52 = ORIENTED_EDGE ( 'NONE', *, *, #212, .T. ) ;
#53 = ORIENTED_EDGE ( 'NONE', *, *, #213, .T. ) ;
#54 = DIRECTION ( 'NONE',  ( -1.000000000000000000, 0.0000000000000000000, 0.0000000000000000000 ) ) ;
#55 = CARTESIAN_POINT ( 'NONE',  ( 0.1250000000000000000, 1.530808498934191200E-017, -1.474999999999997400 ) ) ;
#56 = CIRCLE ( 'NONE', #45, 0.1000000000000008200 ) ;
#57 = LENGTH_MEASURE_WITH_UNIT ( LENGTH_MEASURE( 0.02539999999999999900 ), #103 );
#58 = SHAPE_DEFINITION_REPRESENTATION ( #141, #243 ) ;
#59 = ORGANIZATION ( 'UNSPECIFIED', 'UNSPECIFIED', '' ) ;
#60 = PERSON_AND_ORGANIZATION ( #79, #59 ) ;
#61 = PERSON_AND_ORGANIZATION ( #79, #59 ) ;
#62 = APPROVAL_PERSON_ORGANIZATION ( #61, #39, #116 ) ;
#63 = COORDINATED_UNIVERSAL_TIME_OFFSET ( 6, 0, .BEHIND. ) ;
#64 = LOCAL_TIME ( 8, 10, 57.00000000000000000, #63 ) ;
#65 = CALENDAR_DATE ( 2012, 15, 8 ) ;
#66 = DATE_AND_TIME ( #65, #64 ) ;
#67 = APPROVAL_DATE_TIME ( #66, #39 ) ;
#68 = PERSON_AND_ORGANIZATION ( #79, #59 ) ;
#69 = COORDINATED_UNIVERSAL_TIME_OFFSET ( 6, 0, .BEHIND. ) ;
#70 = LOCAL_TIME ( 8, 10, 57.00000000000000000, #69 ) ;
#71 = CALENDAR_DATE ( 2012, 15, 8 ) ;
#72 = DATE_AND_TIME ( #71, #70 ) ;
#73 = PERSON_AND_ORGANIZATION ( #79, #59 ) ;
#74 = APPROVAL_PERSON_ORGANIZATION ( #73, #184, #162 ) ;
#75 = COORDINATED_UNIVERSAL_TIME_OFFSET ( 6, 0, .BEHIND. ) ;
#76 = ADVANCED_FACE ( 'NONE', ( #197 ), #263, .T. ) ;
#77 = ADVANCED_FACE ( 'NONE', ( #198 ), #262, .T. ) ;
#78 = ADVANCED_FACE ( 'NONE', ( #195 ), #258, .T. ) ;
#79 = PERSON ( 'UNSPECIFIED', 'UNSPECIFIED', 'UNSPECIFIED', ('UNSPECIFIED'), ('UNSPECIFIED'), ('UNSPECIFIED') ) ;
#80 = PRODUCT ( '1257K113', '1257K113', '', ( #111 ) ) ;
#81 = DIRECTION ( 'NONE',  ( -1.000000000000000000, 0.0000000000000000000, 0.0000000000000000000 ) ) ;
#82 = CARTESIAN_POINT ( 'NONE',  ( 0.1000000000000008200, 1.377727649040777000E-017, 1.500000000000000200 ) ) ;
#83 = DIRECTION ( 'NONE',  ( -0.0000000000000000000, -0.0000000000000000000, -1.000000000000000000 ) ) ;
#84 = CARTESIAN_POINT ( 'NONE',  ( 0.0000000000000000000, 0.0000000000000000000, 1.500000000000000200 ) ) ;
#85 = CARTESIAN_POINT ( 'NONE',  ( 0.1250000000000000000, 1.530808498934191200E-017, 1.475000000000000800 ) ) ;
#86 = CARTESIAN_POINT ( 'NONE',  ( 0.0000000000000000000, 0.0000000000000000000, -1.500000000000000200 ) ) ;
#87 = DIRECTION ( 'NONE',  ( -0.0000000000000000000, -0.0000000000000000000, -1.000000000000000000 ) ) ;
#88 = DIRECTION ( 'NONE',  ( 1.000000000000000000, 0.0000000000000000000, 0.0000000000000000000 ) ) ;
#89 = DIRECTION ( 'NONE',  ( -0.0000000000000000000, -0.0000000000000000000, -1.000000000000000000 ) ) ;
#90 = CARTESIAN_POINT ( 'NONE',  ( -0.1250000000000000000, 0.0000000000000000000, 1.475000000000000800 ) ) ;
#91 = CARTESIAN_POINT ( 'NONE',  ( -0.1000000000000008200, 0.0000000000000000000, 1.500000000000000200 ) ) ;
#92 = CARTESIAN_POINT ( 'NONE',  ( 0.0000000000000000000, 0.0000000000000000000, -1.474999999999997400 ) ) ;
#93 = DIRECTION ( 'NONE',  ( -0.0000000000000000000, -0.0000000000000000000, 1.000000000000000000 ) ) ;
#94 = DIRECTION ( 'NONE',  ( 1.000000000000000000, 0.0000000000000000000, 0.0000000000000000000 ) ) ;
#95 = CARTESIAN_POINT ( 'NONE',  ( 0.0000000000000000000, 0.0000000000000000000, 0.0000000000000000000 ) ) ;
#96 = CARTESIAN_POINT ( 'NONE',  ( 0.0000000000000000000, 0.0000000000000000000, 1.500000000000000200 ) ) ;
#97 = DIRECTION ( 'NONE',  ( 0.0000000000000000000, 0.0000000000000000000, 1.000000000000000000 ) ) ;
#98 = CIRCLE ( 'NONE', #28, 0.1250000000000000000 ) ;
#99 = CONICAL_SURFACE ( 'NONE', #20, 0.1250000000000000000, 0.7853981633974452800 ) ;
#100 = DIRECTION ( 'NONE',  ( 0.0000000000000000000, 0.0000000000000000000, -1.000000000000000000 ) ) ;
#101 = CARTESIAN_POINT ( 'NONE',  ( 0.0000000000000000000, 0.0000000000000000000, 1.500000000000000200 ) ) ;
#102 = CARTESIAN_POINT ( 'NONE',  ( -0.1250000000000000000, 0.0000000000000000000, -1.474999999999997400 ) ) ;
#103 =( LENGTH_UNIT ( ) NAMED_UNIT ( * ) SI_UNIT ( $, .METRE. ) );
#104 =( CONVERSION_BASED_UNIT ( 'INCH', #57 ) LENGTH_UNIT ( ) NAMED_UNIT ( #136 ) );
#105 =( NAMED_UNIT ( * ) PLANE_ANGLE_UNIT ( ) SI_UNIT ( $, .RADIAN. ) );
#106 =( NAMED_UNIT ( * ) SI_UNIT ( $, .STERADIAN. ) SOLID_ANGLE_UNIT ( ) );
#107 = APPLICATION_PROTOCOL_DEFINITION ( 'international standard', 'config_control_design', 1994, #108 ) ;
#108 = APPLICATION_CONTEXT ( 'configuration controlled 3d designs of mechanical parts and assemblies' ) ;
#109 = DIRECTION ( 'NONE',  ( 0.0000000000000000000, 0.0000000000000000000, 1.000000000000000000 ) ) ;
#110 = DIRECTION ( 'NONE',  ( 1.000000000000000000, 0.0000000000000000000, 0.0000000000000000000 ) ) ;
#111 = MECHANICAL_CONTEXT ( 'NONE', #108, 'mechanical' ) ;
#112 = PERSON_AND_ORGANIZATION_ROLE ( 'design_owner' ) ;
#113 = APPLICATION_CONTEXT ( 'configuration controlled 3d designs of mechanical parts and assemblies' ) ;
#114 = APPLICATION_PROTOCOL_DEFINITION ( 'international standard', 'config_control_design', 1994, #113 ) ;
#115 = APPROVAL_STATUS ( 'not_yet_approved' ) ;
#116 = APPROVAL_ROLE ( '' ) ;
#117 = PERSON_AND_ORGANIZATION_ROLE ( 'creator' ) ;
#118 = DATE_TIME_ROLE ( 'creation_date' ) ;
#119 = DIRECTION ( 'NONE',  ( 1.000000000000000000, 0.0000000000000000000, 0.0000000000000000000 ) ) ;
#120 = CIRCLE ( 'NONE', #32, 0.09999999999999754900 ) ;
#121 = LINE ( 'NONE', #228, #130 ) ;
#122 = ORIENTED_EDGE ( 'NONE', *, *, #220, .T. ) ;
#123 = ORIENTED_EDGE ( 'NONE', *, *, #223, .T. ) ;
#124 = VERTEX_POINT ( 'NONE', #247 ) ;
#125 = ORIENTED_EDGE ( 'NONE', *, *, #216, .T. ) ;
#126 = VERTEX_POINT ( 'NONE', #82 ) ;
#127 = ORIENTED_EDGE ( 'NONE', *, *, #222, .T. ) ;
#128 = VERTEX_POINT ( 'NONE', #55 ) ;
#129 = VERTEX_POINT ( 'NONE', #19 ) ;
#130 = VECTOR ( 'NONE', #224, 39.37007874015748100 ) ;
#131 = ADVANCED_FACE ( 'NONE', ( #261 ), #199, .T. ) ;
#132 = ADVANCED_FACE ( 'NONE', ( #264 ), #14, .T. ) ;
#133 = ADVANCED_FACE ( 'NONE', ( #260 ), #15, .F. ) ;
#134 = ADVANCED_FACE ( 'NONE', ( #200 ), #266, .T. ) ;
#135 = ADVANCED_FACE ( 'NONE', ( #267 ), #99, .T. ) ;
#136 = DIMENSIONAL_EXPONENTS ( 1.000000000000000000, 0.0000000000000000000, 0.0000000000000000000, 0.0000000000000000000, 0.0000000000000000000, 0.0000000000000000000, 0.0000000000000000000 ) ;
#137 = CARTESIAN_POINT ( 'NONE',  ( 0.1250000000000000000, 0.0000000000000000000, -1.474999999999997400 ) ) ;
#138 = DIRECTION ( 'NONE',  ( 0.7071067811865453500, 0.0000000000000000000, 0.7071067811865496800 ) ) ;
#139 = VECTOR ( 'NONE', #242, 39.37007874015748100 ) ;
#140 = LINE ( 'NONE', #241, #139 ) ;
#141 = PRODUCT_DEFINITION_SHAPE ( 'NONE', 'NONE',  #21 ) ;
#142 = DESIGN_CONTEXT ( 'detailed design', #113, 'design' ) ;
#143 = LOCAL_TIME ( 8, 10, 57.00000000000000000, #75 ) ;
#144 = CALENDAR_DATE ( 2012, 15, 8 ) ;
#145 = DATE_AND_TIME ( #144, #143 ) ;
#146 = APPROVAL_DATE_TIME ( #145, #184 ) ;
#147 = PERSON_AND_ORGANIZATION ( #79, #59 ) ;
#148 = PERSON_AND_ORGANIZATION ( #79, #59 ) ;
#149 = PERSON_AND_ORGANIZATION ( #79, #59 ) ;
#150 = COORDINATED_UNIVERSAL_TIME_OFFSET ( 6, 0, .BEHIND. ) ;
#151 = LOCAL_TIME ( 8, 10, 57.00000000000000000, #150 ) ;
#152 = CALENDAR_DATE ( 2012, 15, 8 ) ;
#153 = DATE_AND_TIME ( #152, #151 ) ;
#154 = PERSON_AND_ORGANIZATION ( #79, #59 ) ;
#155 = APPROVAL_PERSON_ORGANIZATION ( #154, #191, #169 ) ;
#156 = COORDINATED_UNIVERSAL_TIME_OFFSET ( 6, 0, .BEHIND. ) ;
#157 = LOCAL_TIME ( 8, 10, 57.00000000000000000, #156 ) ;
#158 = CALENDAR_DATE ( 2012, 15, 8 ) ;
#159 = DATE_AND_TIME ( #158, #157 ) ;
#160 = APPROVAL_DATE_TIME ( #159, #191 ) ;
#161 = APPROVAL_STATUS ( 'not_yet_approved' ) ;
#162 = APPROVAL_ROLE ( '' ) ;
#163 = PERSON_AND_ORGANIZATION_ROLE ( 'creator' ) ;
#164 = PERSON_AND_ORGANIZATION_ROLE ( 'design_supplier' ) ;
#165 = SECURITY_CLASSIFICATION_LEVEL ( 'unclassified' ) ;
#166 = PERSON_AND_ORGANIZATION_ROLE ( 'classification_officer' ) ;
#167 = DATE_TIME_ROLE ( 'classification_date' ) ;
#168 = APPROVAL_STATUS ( 'not_yet_approved' ) ;
#169 = APPROVAL_ROLE ( '' ) ;
#170 = CARTESIAN_POINT ( 'NONE',  ( 0.0000000000000000000, 0.0000000000000000000, -1.500000000000000200 ) ) ;
#171 = DIRECTION ( 'NONE',  ( -0.0000000000000000000, -0.0000000000000000000, 1.000000000000000000 ) ) ;
#172 = DIRECTION ( 'NONE',  ( 0.0000000000000000000, 0.0000000000000000000, 1.000000000000000000 ) ) ;
#173 = DIRECTION ( 'NONE',  ( 1.000000000000000000, 0.0000000000000000000, -0.0000000000000000000 ) ) ;
#174 = DIRECTION ( 'NONE',  ( 0.0000000000000000000, 0.0000000000000000000, -1.000000000000000000 ) ) ;
#175 = CARTESIAN_POINT ( 'NONE',  ( 0.0000000000000000000, 0.0000000000000000000, 1.500000000000000200 ) ) ;
#176 = DIRECTION ( 'NONE',  ( -1.000000000000000000, 0.0000000000000000000, 0.0000000000000000000 ) ) ;
#177 = CARTESIAN_POINT ( 'NONE',  ( 0.0000000000000000000, 0.0000000000000000000, -1.474999999999997400 ) ) ;
#178 = EDGE_LOOP ( 'NONE', ( #122, #182 ) ) ;
#179 = EDGE_LOOP ( 'NONE', ( #206, #3, #1, #49 ) ) ;
#180 = LINE ( 'NONE', #16, #265 ) ;
#181 = CLOSED_SHELL ( 'NONE', ( #76, #77, #78, #131, #132, #133, #135, #134 ) ) ;
#182 = ORIENTED_EDGE ( 'NONE', *, *, #215, .T. ) ;
#183 = EDGE_LOOP ( 'NONE', ( #52, #48, #53, #50 ) ) ;
#184 = APPROVAL ( #161, 'UNSPECIFIED' ) ;
#185 = CC_DESIGN_APPROVAL ( #184, ( #42 ) ) ;
#186 = CC_DESIGN_PERSON_AND_ORGANIZATION_ASSIGNMENT ( #147, #163, ( #42 ) ) ;
#187 = CC_DESIGN_PERSON_AND_ORGANIZATION_ASSIGNMENT ( #148, #164, ( #42 ) ) ;
#188 = SECURITY_CLASSIFICATION ( '', '', #165 ) ;
#189 = CC_DESIGN_PERSON_AND_ORGANIZATION_ASSIGNMENT ( #149, #166, ( #188 ) ) ;
#190 = CC_DESIGN_DATE_AND_TIME_ASSIGNMENT ( #153, #167, ( #188 ) ) ;
#191 = APPROVAL ( #168, 'UNSPECIFIED' ) ;
#192 = CC_DESIGN_APPROVAL ( #191, ( #188 ) ) ;
#193 = CC_DESIGN_SECURITY_CLASSIFICATION ( #188, ( #42 ) ) ;
#194 = PRODUCT_RELATED_PRODUCT_CATEGORY ( 'detail', '', ( #80 ) ) ;
#195 = FACE_OUTER_BOUND ( 'NONE', #183, .T. ) ;
#196 = CIRCLE ( 'NONE', #38, 0.09999999999999754900 ) ;
#197 = FACE_OUTER_BOUND ( 'NONE', #6, .T. ) ;
#198 = FACE_OUTER_BOUND ( 'NONE', #179, .T. ) ;
#199 = CYLINDRICAL_SURFACE ( 'NONE', #25, 0.1250000000000000000 ) ;
#200 = FACE_OUTER_BOUND ( 'NONE', #255, .T. ) ;
#201 = VECTOR ( 'NONE', #138, 39.37007874015748100 ) ;
#202 = ORIENTED_EDGE ( 'NONE', *, *, #218, .F. ) ;
#203 = ORIENTED_EDGE ( 'NONE', *, *, #223, .F. ) ;
#204 = ORIENTED_EDGE ( 'NONE', *, *, #220, .F. ) ;
#205 = ORIENTED_EDGE ( 'NONE', *, *, #219, .F. ) ;
#206 = ORIENTED_EDGE ( 'NONE', *, *, #215, .F. ) ;
#207 = ORIENTED_EDGE ( 'NONE', *, *, #217, .F. ) ;
#208 = ORIENTED_EDGE ( 'NONE', *, *, #211, .T. ) ;
#209 = ORIENTED_EDGE ( 'NONE', *, *, #30, .T. ) ;
#210 = ORIENTED_EDGE ( 'NONE', *, *, #222, .F. ) ;
#211 = EDGE_CURVE ( 'NONE', #251, #256, #268, .T. ) ;
#212 = EDGE_CURVE ( 'NONE', #256, #250, #272, .T. ) ;
#213 = EDGE_CURVE ( 'NONE', #128, #254, #98, .T. ) ;
#214 = EDGE_CURVE ( 'NONE', #250, #128, #140, .T. ) ;
#215 = EDGE_CURVE ( 'NONE', #124, #129, #120, .T. ) ;
#216 = EDGE_CURVE ( 'NONE', #126, #251, #270, .T. ) ;
#217 = EDGE_CURVE ( 'NONE', #126, #250, #121, .T. ) ;
#218 = EDGE_CURVE ( 'NONE', #250, #256, #257, .T. ) ;
#219 = EDGE_CURVE ( 'NONE', #124, #254, #269, .T. ) ;
#220 = EDGE_CURVE ( 'NONE', #129, #124, #196, .T. ) ;
#221 = EDGE_CURVE ( 'NONE', #256, #254, #180, .T. ) ;
#222 = EDGE_CURVE ( 'NONE', #254, #128, #10, .T. ) ;
#223 = EDGE_CURVE ( 'NONE', #251, #126, #56, .T. ) ;
#224 = DIRECTION ( 'NONE',  ( 0.7071067811865454600, 8.659560562354907000E-017, -0.7071067811865496800 ) ) ;
#225 = CARTESIAN_POINT ( 'NONE',  ( 0.0000000000000000000, 0.0000000000000000000, -1.500000000000000200 ) ) ;
#226 = DIRECTION ( 'NONE',  ( -0.0000000000000000000, -0.0000000000000000000, -1.000000000000000000 ) ) ;
#227 = DIRECTION ( 'NONE',  ( 1.000000000000000000, 0.0000000000000000000, 0.0000000000000000000 ) ) ;
#228 = CARTESIAN_POINT ( 'NONE',  ( 0.1000000000000008200, 1.224646799147363100E-017, 1.500000000000000200 ) ) ;
#229 = CARTESIAN_POINT ( 'NONE',  ( 0.0000000000000000000, 0.0000000000000000000, 1.500000000000000200 ) ) ;
#230 = DIRECTION ( 'NONE',  ( 0.0000000000000000000, 0.0000000000000000000, 1.000000000000000000 ) ) ;
#231 = DIRECTION ( 'NONE',  ( 1.000000000000000000, 0.0000000000000000000, 0.0000000000000000000 ) ) ;
#232 = DIRECTION ( 'NONE',  ( -0.7071067811865453500, 8.659560562354907000E-017, 0.7071067811865496800 ) ) ;
#233 = DIRECTION ( 'NONE',  ( 1.000000000000000000, 0.0000000000000000000, 0.0000000000000000000 ) ) ;
#234 = CARTESIAN_POINT ( 'NONE',  ( -0.1250000000000000000, 1.530808498934191500E-017, -1.474999999999997400 ) ) ;
#235 = CARTESIAN_POINT ( 'NONE',  ( 0.0000000000000000000, 0.0000000000000000000, 1.475000000000000800 ) ) ;
#236 = DIRECTION ( 'NONE',  ( 0.0000000000000000000, 0.0000000000000000000, -1.000000000000000000 ) ) ;
#237 = DIRECTION ( 'NONE',  ( 1.000000000000000000, 0.0000000000000000000, 0.0000000000000000000 ) ) ;
#238 = DIRECTION ( 'NONE',  ( 1.000000000000000000, 0.0000000000000000000, 0.0000000000000000000 ) ) ;
#239 = DIRECTION ( 'NONE',  ( -0.7071067811865454600, 0.0000000000000000000, -0.7071067811865496800 ) ) ;
#240 = CARTESIAN_POINT ( 'NONE',  ( -0.1000000000000008200, 0.0000000000000000000, 1.500000000000000200 ) ) ;
#241 = CARTESIAN_POINT ( 'NONE',  ( 0.1250000000000000000, 1.530808498934191200E-017, 1.500000000000000200 ) ) ;
#242 = DIRECTION ( 'NONE',  ( -0.0000000000000000000, -0.0000000000000000000, -1.000000000000000000 ) ) ;
#243 = ADVANCED_BREP_SHAPE_REPRESENTATION ( '1257K113', ( #245, #36 ), #44 ) ;
#244 = UNCERTAINTY_MEASURE_WITH_UNIT (LENGTH_MEASURE( 1.000000000000000100E-005 ), #104, 'distance_accuracy_value', 'NONE');
#245 = MANIFOLD_SOLID_BREP ( 'Chamfer1', #181 ) ;
#246 = CARTESIAN_POINT ( 'NONE',  ( 0.0000000000000000000, 0.0000000000000000000, 1.500000000000000200 ) ) ;
#247 = CARTESIAN_POINT ( 'NONE',  ( -0.09999999999999754900, 1.377727649040757300E-017, -1.500000000000000200 ) ) ;
#248 = DIRECTION ( 'NONE',  ( -0.0000000000000000000, -0.0000000000000000000, 1.000000000000000000 ) ) ;
#249 = CARTESIAN_POINT ( 'NONE',  ( 0.0000000000000000000, 0.0000000000000000000, -1.474999999999997400 ) ) ;
#250 = VERTEX_POINT ( 'NONE', #85 ) ;
#251 = VERTEX_POINT ( 'NONE', #91 ) ;
#252 = EDGE_LOOP ( 'NONE', ( #205, #204, #209, #210 ) ) ;
#253 = LINE ( 'NONE', #137, #201 ) ;
#254 = VERTEX_POINT ( 'NONE', #102 ) ;
#255 = EDGE_LOOP ( 'NONE', ( #207, #203, #208, #202 ) ) ;
#256 = VERTEX_POINT ( 'NONE', #90 ) ;
#257 = CIRCLE ( 'NONE', #34, 0.1250000000000000000 ) ;
#258 = CYLINDRICAL_SURFACE ( 'NONE', #26, 0.1250000000000000000 ) ;
#259 = VECTOR ( 'NONE', #232, 39.37007874015748100 ) ;
#260 = FACE_OUTER_BOUND ( 'NONE', #178, .T. ) ;
#261 = FACE_OUTER_BOUND ( 'NONE', #8, .T. ) ;
#262 = CONICAL_SURFACE ( 'NONE', #27, 0.1250000000000000000, 0.7853981633974452800 ) ;
#263 = CONICAL_SURFACE ( 'NONE', #29, 0.1000000000000008200, 0.7853981633974452800 ) ;
#264 = FACE_OUTER_BOUND ( 'NONE', #7, .T. ) ;
#265 = VECTOR ( 'NONE', #89, 39.37007874015748100 ) ;
#266 = CONICAL_SURFACE ( 'NONE', #23, 0.1000000000000008200, 0.7853981633974452800 ) ;
#267 = FACE_OUTER_BOUND ( 'NONE', #252, .T. ) ;
#268 = LINE ( 'NONE', #240, #271 ) ;
#269 = LINE ( 'NONE', #234, #259 ) ;
#270 = CIRCLE ( 'NONE', #33, 0.1000000000000008200 ) ;
#271 = VECTOR ( 'NONE', #239, 39.37007874015748100 ) ;
#272 = CIRCLE ( 'NONE', #31, 0.1250000000000000000 ) ;
#273 = CARTESIAN_POINT ( 'NONE',  ( 0.0000000000000000000, 0.0000000000000000000, 1.475000000000000800 ) ) ;
#274 = DIRECTION ( 'NONE',  ( 0.0000000000000000000, 0.0000000000000000000, -1.000000000000000000 ) ) ;
#275 = DIRECTION ( 'NONE',  ( 1.000000000000000000, 0.0000000000000000000, 0.0000000000000000000 ) ) ;
#276 = CARTESIAN_POINT ( 'NONE',  ( 0.0000000000000000000, 0.0000000000000000000, -1.474999999999997400 ) ) ;
#277 = DIRECTION ( 'NONE',  ( -0.0000000000000000000, -0.0000000000000000000, 1.000000000000000000 ) ) ;
#278 = DIRECTION ( 'NONE',  ( 1.000000000000000000, 0.0000000000000000000, 0.0000000000000000000 ) ) ;
ENDSEC;
END-ISO-10303-21;
