ISO-10303-21;
HEADER;
FILE_DESCRIPTION (( 'STEP AP203' ),
    '1' );
FILE_NAME ('93475A210.step',
    '2014-11-11T16:48:58',
    ( '' ),
    ( '' ),
    'SwSTEP 2.0',
    'SolidWorks 2010',
    '' );
FILE_SCHEMA (( 'CONFIG_CONTROL_DESIGN' ));
ENDSEC;

DATA;
#1 = PLANE ( 'NONE',  #209 ) ;
#2 = DIRECTION ( 'NONE',  ( 1.000000000000000000, 0.0000000000000000000, 0.0000000000000000000 ) ) ;
#3 = CARTESIAN_POINT ( 'NONE',  ( -3.500000000000000000, 0.0000000000000000000, 0.0000000000000000000 ) ) ;
#4 = PERSON_AND_ORGANIZATION_ROLE ( 'creator' ) ;
#5 = DIRECTION ( 'NONE',  ( 0.0000000000000000000, 0.0000000000000000000, 1.000000000000000000 ) ) ;
#6 = CARTESIAN_POINT ( 'NONE',  ( 0.0000000000000000000, 0.0000000000000000000, 0.0000000000000000000 ) ) ;
#7 = CARTESIAN_POINT ( 'NONE',  ( 0.0000000000000000000, 0.0000000000000000000, 0.0000000000000000000 ) ) ;
#8 = PERSON_AND_ORGANIZATION_ROLE ( 'classification_officer' ) ;
#9 = PERSON_AND_ORGANIZATION_ROLE ( 'creator' ) ;
#10 =( NAMED_UNIT ( * ) SI_UNIT ( $, .STERADIAN. ) SOLID_ANGLE_UNIT ( ) );
#11 =( NAMED_UNIT ( * ) PLANE_ANGLE_UNIT ( ) SI_UNIT ( $, .RADIAN. ) );
#12 = CARTESIAN_POINT ( 'NONE',  ( 0.0000000000000000000, 0.0000000000000000000, 0.5999999999999999800 ) ) ;
#13 = DIRECTION ( 'NONE',  ( -0.0000000000000000000, -0.0000000000000000000, -1.000000000000000000 ) ) ;
#14 = APPROVAL_STATUS ( 'not_yet_approved' ) ;
#15 = DIRECTION ( 'NONE',  ( -1.000000000000000000, 0.0000000000000000000, 0.0000000000000000000 ) ) ;
#16 = CARTESIAN_POINT ( 'NONE',  ( -3.500000000000000000, 0.0000000000000000000, 0.5999999999999999800 ) ) ;
#17 = APPROVAL_ROLE ( '' ) ;
#18 = DIRECTION ( 'NONE',  ( 1.000000000000000000, 0.0000000000000000000, 0.0000000000000000000 ) ) ;
#19 = DIRECTION ( 'NONE',  ( 0.0000000000000000000, 0.0000000000000000000, 1.000000000000000000 ) ) ;
#20 =( LENGTH_UNIT ( ) NAMED_UNIT ( * ) SI_UNIT ( .MILLI., .METRE. ) );
#21 = APPLICATION_CONTEXT ( 'configuration controlled 3d designs of mechanical parts and assemblies' ) ;
#22 = CARTESIAN_POINT ( 'NONE',  ( 0.0000000000000000000, 0.0000000000000000000, 0.5999999999999999800 ) ) ;
#23 = DATE_TIME_ROLE ( 'classification_date' ) ;
#24 = DIRECTION ( 'NONE',  ( 1.000000000000000000, 0.0000000000000000000, 0.0000000000000000000 ) ) ;
#25 = DIRECTION ( 'NONE',  ( -0.0000000000000000000, -0.0000000000000000000, -1.000000000000000000 ) ) ;
#26 = DIRECTION ( 'NONE',  ( 0.0000000000000000000, 0.0000000000000000000, 1.000000000000000000 ) ) ;
#27 = CARTESIAN_POINT ( 'NONE',  ( -1.600000000000000500, 0.0000000000000000000, 0.5999999999999999800 ) ) ;
#28 = DIRECTION ( 'NONE',  ( 1.000000000000000000, 0.0000000000000000000, 0.0000000000000000000 ) ) ;
#29 = DIRECTION ( 'NONE',  ( 0.0000000000000000000, 0.0000000000000000000, 1.000000000000000000 ) ) ;
#30 = CARTESIAN_POINT ( 'NONE',  ( 0.0000000000000000000, 0.0000000000000000000, 0.5999999999999999800 ) ) ;
#31 = APPROVAL_STATUS ( 'not_yet_approved' ) ;
#32 = DIRECTION ( 'NONE',  ( 1.000000000000000000, 0.0000000000000000000, 0.0000000000000000000 ) ) ;
#33 = DIRECTION ( 'NONE',  ( 0.0000000000000000000, 0.0000000000000000000, 1.000000000000000000 ) ) ;
#34 = DIRECTION ( 'NONE',  ( -0.0000000000000000000, -0.0000000000000000000, -1.000000000000000000 ) ) ;
#35 = CARTESIAN_POINT ( 'NONE',  ( 0.0000000000000000000, 0.0000000000000000000, 0.0000000000000000000 ) ) ;
#36 = APPROVAL_STATUS ( 'not_yet_approved' ) ;
#37 = DIRECTION ( 'NONE',  ( 1.000000000000000000, 0.0000000000000000000, 0.0000000000000000000 ) ) ;
#38 = DIRECTION ( 'NONE',  ( 0.0000000000000000000, 0.0000000000000000000, 1.000000000000000000 ) ) ;
#39 = DIRECTION ( 'NONE',  ( -1.000000000000000000, 0.0000000000000000000, 0.0000000000000000000 ) ) ;
#40 = CARTESIAN_POINT ( 'NONE',  ( 0.0000000000000000000, 0.0000000000000000000, 0.0000000000000000000 ) ) ;
#41 = CARTESIAN_POINT ( 'NONE',  ( 0.0000000000000000000, 0.0000000000000000000, 0.0000000000000000000 ) ) ;
#42 = DIRECTION ( 'NONE',  ( 1.000000000000000000, 0.0000000000000000000, 0.0000000000000000000 ) ) ;
#43 = CARTESIAN_POINT ( 'NONE',  ( 1.600000000000000500, 1.959434878635765700E-016, 0.5999999999999999800 ) ) ;
#44 = DIRECTION ( 'NONE',  ( 0.0000000000000000000, 0.0000000000000000000, 1.000000000000000000 ) ) ;
#45 = CARTESIAN_POINT ( 'NONE',  ( 0.0000000000000000000, 0.0000000000000000000, 0.5999999999999999800 ) ) ;
#46 = DIRECTION ( 'NONE',  ( 1.000000000000000000, 0.0000000000000000000, 0.0000000000000000000 ) ) ;
#47 = CARTESIAN_POINT ( 'NONE',  ( 1.600000000000000500, 1.959434878635765700E-016, 0.0000000000000000000 ) ) ;
#48 = PERSON_AND_ORGANIZATION_ROLE ( 'design_owner' ) ;
#49 = CARTESIAN_POINT ( 'NONE',  ( 0.0000000000000000000, 0.0000000000000000000, 0.5999999999999999800 ) ) ;
#50 = DIRECTION ( 'NONE',  ( -0.0000000000000000000, -0.0000000000000000000, -1.000000000000000000 ) ) ;
#51 = CARTESIAN_POINT ( 'NONE',  ( 0.0000000000000000000, 0.0000000000000000000, 0.5999999999999999800 ) ) ;
#52 = CARTESIAN_POINT ( 'NONE',  ( -1.600000000000000500, 0.0000000000000000000, 0.0000000000000000000 ) ) ;
#53 = DIRECTION ( 'NONE',  ( -0.0000000000000000000, -0.0000000000000000000, -1.000000000000000000 ) ) ;
#54 = CARTESIAN_POINT ( 'NONE',  ( -1.600000000000000500, 0.0000000000000000000, 0.5999999999999999800 ) ) ;
#55 = DIRECTION ( 'NONE',  ( 1.000000000000000000, 0.0000000000000000000, 0.0000000000000000000 ) ) ;
#56 = DIRECTION ( 'NONE',  ( 0.0000000000000000000, 0.0000000000000000000, 1.000000000000000000 ) ) ;
#57 = DIRECTION ( 'NONE',  ( -0.0000000000000000000, -0.0000000000000000000, -1.000000000000000000 ) ) ;
#58 = CARTESIAN_POINT ( 'NONE',  ( 3.500000000000000000, 4.286263797015736600E-016, 0.5999999999999999800 ) ) ;
#59 = VERTEX_POINT ( 'NONE', #85 ) ;
#60 = CARTESIAN_POINT ( 'NONE',  ( 0.0000000000000000000, 0.0000000000000000000, 0.0000000000000000000 ) ) ;
#61 = VERTEX_POINT ( 'NONE', #93 ) ;
#62 = VERTEX_POINT ( 'NONE', #27 ) ;
#63 = DIRECTION ( 'NONE',  ( 1.000000000000000000, 0.0000000000000000000, -0.0000000000000000000 ) ) ;
#64 = APPROVAL_ROLE ( '' ) ;
#65 = DIRECTION ( 'NONE',  ( 0.0000000000000000000, 0.0000000000000000000, 1.000000000000000000 ) ) ;
#66 = PLANE ( 'NONE',  #248 ) ;
#67 = APPLICATION_PROTOCOL_DEFINITION ( 'international standard', 'config_control_design', 1994, #21 ) ;
#68 = CARTESIAN_POINT ( 'NONE',  ( 0.0000000000000000000, 0.0000000000000000000, 0.5999999999999999800 ) ) ;
#69 = APPLICATION_PROTOCOL_DEFINITION ( 'international standard', 'config_control_design', 1994, #70 ) ;
#70 = APPLICATION_CONTEXT ( 'configuration controlled 3d designs of mechanical parts and assemblies' ) ;
#71 = CARTESIAN_POINT ( 'NONE',  ( 0.0000000000000000000, 0.0000000000000000000, 0.5999999999999999800 ) ) ;
#72 = DIRECTION ( 'NONE',  ( -0.0000000000000000000, -0.0000000000000000000, -1.000000000000000000 ) ) ;
#73 = CARTESIAN_POINT ( 'NONE',  ( 1.600000000000000500, 1.959434878635765700E-016, 0.5999999999999999800 ) ) ;
#74 = CARTESIAN_POINT ( 'NONE',  ( 0.0000000000000000000, 0.0000000000000000000, 0.5999999999999999800 ) ) ;
#75 = DIRECTION ( 'NONE',  ( -1.000000000000000000, 0.0000000000000000000, 0.0000000000000000000 ) ) ;
#76 = DIRECTION ( 'NONE',  ( 0.0000000000000000000, 0.0000000000000000000, 1.000000000000000000 ) ) ;
#77 = DIRECTION ( 'NONE',  ( -1.000000000000000000, 0.0000000000000000000, 0.0000000000000000000 ) ) ;
#78 = DIRECTION ( 'NONE',  ( 1.000000000000000000, 0.0000000000000000000, -0.0000000000000000000 ) ) ;
#79 = DIRECTION ( 'NONE',  ( -0.0000000000000000000, -0.0000000000000000000, -1.000000000000000000 ) ) ;
#80 = VERTEX_POINT ( 'NONE', #52 ) ;
#81 = VERTEX_POINT ( 'NONE', #87 ) ;
#82 = VERTEX_POINT ( 'NONE', #47 ) ;
#83 = VERTEX_POINT ( 'NONE', #3 ) ;
#84 = VERTEX_POINT ( 'NONE', #43 ) ;
#85 = CARTESIAN_POINT ( 'NONE',  ( 3.500000000000000000, 4.286263797015736600E-016, 0.5999999999999999800 ) ) ;
#86 = PERSON_AND_ORGANIZATION_ROLE ( 'design_supplier' ) ;
#87 = CARTESIAN_POINT ( 'NONE',  ( 3.500000000000000000, 4.286263797015736600E-016, 0.0000000000000000000 ) ) ;
#88 = MECHANICAL_CONTEXT ( 'NONE', #70, 'mechanical' ) ;
#89 = SECURITY_CLASSIFICATION_LEVEL ( 'unclassified' ) ;
#90 = DATE_TIME_ROLE ( 'creation_date' ) ;
#91 = APPROVAL_ROLE ( '' ) ;
#92 = DIRECTION ( 'NONE',  ( 0.0000000000000000000, 0.0000000000000000000, 1.000000000000000000 ) ) ;
#93 = CARTESIAN_POINT ( 'NONE',  ( -3.500000000000000000, 0.0000000000000000000, 0.5999999999999999800 ) ) ;
#94 = PRODUCT_RELATED_PRODUCT_CATEGORY ( 'detail', '', ( #195 ) ) ;
#95 = CC_DESIGN_SECURITY_CLASSIFICATION ( #235, ( #212 ) ) ;
#96 = CC_DESIGN_APPROVAL ( #216, ( #235 ) ) ;
#97 = EDGE_LOOP ( 'NONE', ( #151, #107 ) ) ;
#98 = PERSON_AND_ORGANIZATION ( #196, #170 ) ;
#99 = ORIENTED_EDGE ( 'NONE', *, *, #229, .T. ) ;
#100 = APPROVAL_PERSON_ORGANIZATION ( #171, #214, #64 ) ;
#101 = DATE_AND_TIME ( #135, #104 ) ;
#102 = LINE ( 'NONE', #54, #168 ) ;
#103 = CALENDAR_DATE ( 2014, 11, 11 ) ;
#104 = LOCAL_TIME ( 10, 48, 58.00000000000000000, #112 ) ;
#105 = ORIENTED_EDGE ( 'NONE', *, *, #228, .T. ) ;
#106 = ORIENTED_EDGE ( 'NONE', *, *, #237, .F. ) ;
#107 = ORIENTED_EDGE ( 'NONE', *, *, #237, .T. ) ;
#108 = EDGE_LOOP ( 'NONE', ( #162, #125, #99, #106 ) ) ;
#109 = FACE_BOUND ( 'NONE', #97, .T. ) ;
#110 = PERSON_AND_ORGANIZATION ( #196, #170 ) ;
#111 = APPROVAL_PERSON_ORGANIZATION ( #120, #216, #91 ) ;
#112 = COORDINATED_UNIVERSAL_TIME_OFFSET ( 6, 0, .BEHIND. ) ;
#113 = ORIENTED_EDGE ( 'NONE', *, *, #231, .T. ) ;
#114 = PERSON_AND_ORGANIZATION ( #196, #170 ) ;
#115 = SHAPE_DEFINITION_REPRESENTATION ( #201, #197 ) ;
#116 = CYLINDRICAL_SURFACE ( 'NONE', #247, 3.500000000000000000 ) ;
#117 = ORIENTED_EDGE ( 'NONE', *, *, #239, .F. ) ;
#118 = CIRCLE ( 'NONE', #246, 3.500000000000000000 ) ;
#119 = FACE_OUTER_BOUND ( 'NONE', #188, .T. ) ;
#120 = PERSON_AND_ORGANIZATION ( #196, #170 ) ;
#121 = COORDINATED_UNIVERSAL_TIME_OFFSET ( 6, 0, .BEHIND. ) ;
#122 = FACE_OUTER_BOUND ( 'NONE', #183, .T. ) ;
#123 = COORDINATED_UNIVERSAL_TIME_OFFSET ( 6, 0, .BEHIND. ) ;
#124 = VECTOR ( 'NONE', #53, 1000.000000000000000 ) ;
#125 = ORIENTED_EDGE ( 'NONE', *, *, #239, .T. ) ;
#126 = ORIENTED_EDGE ( 'NONE', *, *, #230, .T. ) ;
#127 = CIRCLE ( 'NONE', #249, 1.600000000000000500 ) ;
#128 = CIRCLE ( 'NONE', #236, 3.500000000000000000 ) ;
#129 = EDGE_LOOP ( 'NONE', ( #184, #163, #192, #138 ) ) ;
#130 = CLOSED_SHELL ( 'NONE', ( #204, #202, #207, #203, #206, #205 ) ) ;
#131 = LOCAL_TIME ( 10, 48, 58.00000000000000000, #123 ) ;
#132 = ORIENTED_EDGE ( 'NONE', *, *, #227, .F. ) ;
#133 = CYLINDRICAL_SURFACE ( 'NONE', #244, 3.500000000000000000 ) ;
#134 =( GEOMETRIC_REPRESENTATION_CONTEXT ( 3 ) GLOBAL_UNCERTAINTY_ASSIGNED_CONTEXT ( ( #199 ) ) GLOBAL_UNIT_ASSIGNED_CONTEXT ( ( #20, #11, #10 ) ) REPRESENTATION_CONTEXT ( 'NONE', 'WORKASPACE' ) );
#135 = CALENDAR_DATE ( 2014, 11, 11 ) ;
#136 = DATE_AND_TIME ( #103, #131 ) ;
#137 = APPROVAL_DATE_TIME ( #101, #216 ) ;
#138 = ORIENTED_EDGE ( 'NONE', *, *, #238, .T. ) ;
#139 = PERSON_AND_ORGANIZATION ( #196, #170 ) ;
#140 = EDGE_LOOP ( 'NONE', ( #164, #194, #158, #167 ) ) ;
#141 = LINE ( 'NONE', #16, #165 ) ;
#142 = CIRCLE ( 'NONE', #233, 1.600000000000000500 ) ;
#143 = ORIENTED_EDGE ( 'NONE', *, *, #230, .F. ) ;
#144 = APPROVAL_PERSON_ORGANIZATION ( #98, #213, #17 ) ;
#145 = FACE_OUTER_BOUND ( 'NONE', #190, .T. ) ;
#146 = VECTOR ( 'NONE', #57, 1000.000000000000000 ) ;
#147 = CIRCLE ( 'NONE', #243, 3.500000000000000000 ) ;
#148 = CALENDAR_DATE ( 2014, 11, 11 ) ;
#149 = LINE ( 'NONE', #58, #146 ) ;
#150 = CYLINDRICAL_SURFACE ( 'NONE', #242, 1.600000000000000500 ) ;
#151 = ORIENTED_EDGE ( 'NONE', *, *, #227, .T. ) ;
#152 = CYLINDRICAL_SURFACE ( 'NONE', #241, 1.600000000000000500 ) ;
#153 = CALENDAR_DATE ( 2014, 11, 11 ) ;
#154 = DATE_AND_TIME ( #153, #161 ) ;
#155 = APPROVAL_DATE_TIME ( #154, #213 ) ;
#156 = PERSON_AND_ORGANIZATION ( #196, #170 ) ;
#157 = COORDINATED_UNIVERSAL_TIME_OFFSET ( 6, 0, .BEHIND. ) ;
#158 = ORIENTED_EDGE ( 'NONE', *, *, #232, .T. ) ;
#159 = FACE_OUTER_BOUND ( 'NONE', #140, .T. ) ;
#160 = ORIENTED_EDGE ( 'NONE', *, *, #232, .F. ) ;
#161 = LOCAL_TIME ( 10, 48, 58.00000000000000000, #121 ) ;
#162 = ORIENTED_EDGE ( 'NONE', *, *, #228, .F. ) ;
#163 = ORIENTED_EDGE ( 'NONE', *, *, #234, .F. ) ;
#164 = ORIENTED_EDGE ( 'NONE', *, *, #231, .F. ) ;
#165 = VECTOR ( 'NONE', #13, 1000.000000000000000 ) ;
#166 = LINE ( 'NONE', #73, #124 ) ;
#167 = ORIENTED_EDGE ( 'NONE', *, *, #240, .F. ) ;
#168 = VECTOR ( 'NONE', #50, 1000.000000000000000 ) ;
#169 = LOCAL_TIME ( 10, 48, 58.00000000000000000, #157 ) ;
#170 = ORGANIZATION ( 'UNSPECIFIED', 'UNSPECIFIED', '' ) ;
#171 = PERSON_AND_ORGANIZATION ( #196, #170 ) ;
#172 = CIRCLE ( 'NONE', #245, 1.600000000000000500 ) ;
#173 = CIRCLE ( 'NONE', #215, 3.500000000000000000 ) ;
#174 = FACE_BOUND ( 'NONE', #187, .T. ) ;
#175 = DATE_AND_TIME ( #148, #169 ) ;
#176 = COORDINATED_UNIVERSAL_TIME_OFFSET ( 6, 0, .BEHIND. ) ;
#177 = FACE_OUTER_BOUND ( 'NONE', #108, .T. ) ;
#178 = LOCAL_TIME ( 10, 48, 58.00000000000000000, #176 ) ;
#179 = CALENDAR_DATE ( 2014, 11, 11 ) ;
#180 = DATE_AND_TIME ( #179, #178 ) ;
#181 = APPROVAL_DATE_TIME ( #180, #214 ) ;
#182 = CIRCLE ( 'NONE', #211, 1.600000000000000500 ) ;
#183 = EDGE_LOOP ( 'NONE', ( #191, #113 ) ) ;
#184 = ORIENTED_EDGE ( 'NONE', *, *, #226, .F. ) ;
#185 = PERSON_AND_ORGANIZATION ( #196, #170 ) ;
#186 = ORIENTED_EDGE ( 'NONE', *, *, #238, .F. ) ;
#187 = EDGE_LOOP ( 'NONE', ( #143, #117 ) ) ;
#188 = EDGE_LOOP ( 'NONE', ( #186, #160 ) ) ;
#189 = ORIENTED_EDGE ( 'NONE', *, *, #229, .F. ) ;
#190 = EDGE_LOOP ( 'NONE', ( #126, #105, #132, #189 ) ) ;
#191 = ORIENTED_EDGE ( 'NONE', *, *, #234, .T. ) ;
#192 = ORIENTED_EDGE ( 'NONE', *, *, #240, .T. ) ;
#193 = FACE_OUTER_BOUND ( 'NONE', #129, .T. ) ;
#194 = ORIENTED_EDGE ( 'NONE', *, *, #226, .T. ) ;
#195 = PRODUCT ( '93475A210', '93475A210', '', ( #88 ) ) ;
#196 = PERSON ( 'UNSPECIFIED', 'UNSPECIFIED', 'UNSPECIFIED', ('UNSPECIFIED'), ('UNSPECIFIED'), ('UNSPECIFIED') ) ;
#197 = ADVANCED_BREP_SHAPE_REPRESENTATION ( '93475A210', ( #198, #222 ), #134 ) ;
#198 = MANIFOLD_SOLID_BREP ( 'Boss-Extrude1', #130 ) ;
#199 = UNCERTAINTY_MEASURE_WITH_UNIT (LENGTH_MEASURE( 1.000000000000000100E-005 ), #20, 'distance_accuracy_value', 'NONE');
#200 = DESIGN_CONTEXT ( 'detailed design', #21, 'design' ) ;
#201 = PRODUCT_DEFINITION_SHAPE ( 'NONE', 'NONE',  #219 ) ;
#202 = ADVANCED_FACE ( 'NONE', ( #159 ), #133, .T. ) ;
#203 = ADVANCED_FACE ( 'NONE', ( #119, #109 ), #1, .F. ) ;
#204 = ADVANCED_FACE ( 'NONE', ( #145 ), #152, .F. ) ;
#205 = ADVANCED_FACE ( 'NONE', ( #177 ), #150, .F. ) ;
#206 = ADVANCED_FACE ( 'NONE', ( #193 ), #116, .T. ) ;
#207 = ADVANCED_FACE ( 'NONE', ( #122, #174 ), #66, .T. ) ;
#208 = CC_DESIGN_PERSON_AND_ORGANIZATION_ASSIGNMENT ( #185, #9, ( #212 ) ) ;
#209 = AXIS2_PLACEMENT_3D ( 'NONE', #7, #76, #78 ) ;
#210 = CC_DESIGN_DATE_AND_TIME_ASSIGNMENT ( #136, #23, ( #235 ) ) ;
#211 = AXIS2_PLACEMENT_3D ( 'NONE', #40, #29, #28 ) ;
#212 = PRODUCT_DEFINITION_FORMATION_WITH_SPECIFIED_SOURCE ( 'ANY', '', #195, .NOT_KNOWN. ) ;
#213 = APPROVAL ( #14, 'UNSPECIFIED' ) ;
#214 = APPROVAL ( #36, 'UNSPECIFIED' ) ;
#215 = AXIS2_PLACEMENT_3D ( 'NONE', #35, #26, #24 ) ;
#216 = APPROVAL ( #31, 'UNSPECIFIED' ) ;
#217 = CC_DESIGN_PERSON_AND_ORGANIZATION_ASSIGNMENT ( #156, #4, ( #219 ) ) ;
#218 = CC_DESIGN_DATE_AND_TIME_ASSIGNMENT ( #175, #90, ( #219 ) ) ;
#219 = PRODUCT_DEFINITION ( 'UNKNOWN', '', #212, #200 ) ;
#220 = CC_DESIGN_APPROVAL ( #213, ( #219 ) ) ;
#221 = CC_DESIGN_PERSON_AND_ORGANIZATION_ASSIGNMENT ( #139, #8, ( #235 ) ) ;
#222 = AXIS2_PLACEMENT_3D ( 'NONE', #6, #5, #2 ) ;
#223 = CC_DESIGN_APPROVAL ( #214, ( #212 ) ) ;
#224 = CC_DESIGN_PERSON_AND_ORGANIZATION_ASSIGNMENT ( #114, #86, ( #212 ) ) ;
#225 = CC_DESIGN_PERSON_AND_ORGANIZATION_ASSIGNMENT ( #110, #48, ( #195 ) ) ;
#226 = EDGE_CURVE ( 'NONE', #59, #81, #149, .T. ) ;
#227 = EDGE_CURVE ( 'NONE', #80, #82, #172, .T. ) ;
#228 = EDGE_CURVE ( 'NONE', #84, #82, #166, .T. ) ;
#229 = EDGE_CURVE ( 'NONE', #62, #80, #102, .T. ) ;
#230 = EDGE_CURVE ( 'NONE', #62, #84, #142, .T. ) ;
#231 = EDGE_CURVE ( 'NONE', #59, #61, #147, .T. ) ;
#232 = EDGE_CURVE ( 'NONE', #81, #83, #128, .T. ) ;
#233 = AXIS2_PLACEMENT_3D ( 'NONE', #49, #92, #46 ) ;
#234 = EDGE_CURVE ( 'NONE', #61, #59, #118, .T. ) ;
#235 = SECURITY_CLASSIFICATION ( '', '', #89 ) ;
#236 = AXIS2_PLACEMENT_3D ( 'NONE', #41, #38, #37 ) ;
#237 = EDGE_CURVE ( 'NONE', #82, #80, #182, .T. ) ;
#238 = EDGE_CURVE ( 'NONE', #83, #81, #173, .T. ) ;
#239 = EDGE_CURVE ( 'NONE', #84, #62, #127, .T. ) ;
#240 = EDGE_CURVE ( 'NONE', #61, #83, #141, .T. ) ;
#241 = AXIS2_PLACEMENT_3D ( 'NONE', #12, #25, #75 ) ;
#242 = AXIS2_PLACEMENT_3D ( 'NONE', #74, #79, #77 ) ;
#243 = AXIS2_PLACEMENT_3D ( 'NONE', #51, #44, #42 ) ;
#244 = AXIS2_PLACEMENT_3D ( 'NONE', #30, #34, #39 ) ;
#245 = AXIS2_PLACEMENT_3D ( 'NONE', #60, #56, #55 ) ;
#246 = AXIS2_PLACEMENT_3D ( 'NONE', #45, #33, #32 ) ;
#247 = AXIS2_PLACEMENT_3D ( 'NONE', #71, #72, #15 ) ;
#248 = AXIS2_PLACEMENT_3D ( 'NONE', #68, #65, #63 ) ;
#249 = AXIS2_PLACEMENT_3D ( 'NONE', #22, #19, #18 ) ;
ENDSEC;
END-ISO-10303-21;
